{
    "number": 0,
    "size": 10,
    "totalPages": 8821,
    "totalElements": 88209,
    "content": [
        {
            "dtCreate": 1701085693848,
            "dtUpdate": 1701085693848,
            "chainUuid": null,
            "state": 3,
            "publicPurchaseNumber": "2514967",
            "author": null,
            "title": "Реагенты для гематологического анализатора Mythic-18",
            "organizator": {
                "uuid": "a3456cbd-fab7-4f71-a57d-6cb569c6c5b0",
                "name": "Учреждение здравоохранения \"33-я городская студенческая поликлиника\"",
                "unp": "100299637",
                "region": null,
                "cityName": null,
                "okogu": 33050,
                "location": "220013, Минск, ул.Сурганова Ф.А., д.45, корп.4"
            },
            "requestDate": 1701723599000,
            "sumLot": {
                "uuid": "2cf0756d-0540-4d4b-854b-9c116ae40ffc",
                "sumLot": 2000.0,
                "appeal": null,
                "appealData": null,
                "okpbs": null,
                "states": null
            },
            "stateName": "Подача предложений",
            "purchaseGiasId": "2cf0756d-0540-4d4b-854b-9c116ae40ffc"
        },
        {
            "dtCreate": 1701085665185,
            "dtUpdate": 1701085665185,
            "chainUuid": null,
            "state": 3,
            "publicPurchaseNumber": "2514959",
            "author": null,
            "title": "БелМТ №1238/23-ЭА \"Машина термозапаивающая, упаковывающая с принадлежностями\"",
            "organizator": {
                "uuid": "bb5ae690-e55d-4801-9ad2-b35273d6f815",
                "name": "Производственно-торговое республиканское унитарное предприятие \"Белмедтехника\"",
                "unp": "100027309",
                "region": null,
                "cityName": null,
                "okogu": 33050,
                "location": "220007, г. Минск, ул. Могилеская, 16, корп. 4"
            },
            "requestDate": 1702673999999,
            "sumLot": {
                "uuid": "303353e0-b105-4b31-b695-efdfbcc3b40d",
                "sumLot": 250000.0,
                "appeal": null,
                "appealData": null,
                "okpbs": null,
                "states": null
            },
            "stateName": "Подача предложений",
            "purchaseGiasId": "303353e0-b105-4b31-b695-efdfbcc3b40d"
        },
        {
            "dtCreate": 1701085568967,
            "dtUpdate": 1701085568967,
            "chainUuid": null,
            "state": 10,
            "publicPurchaseNumber": "2514948",
            "author": null,
            "title": "Система подачи кислорода от 10 литровых баллонов с кислородными розетками и штекерами на 3 автомобиля.",
            "organizator": {
                "uuid": "a644ec7e-ad8a-47a2-8a0f-71113a0427ff",
                "name": "Учреждение здравоохранения \"Лоевская центральная районная больница\"",
                "unp": "400014228",
                "region": null,
                "cityName": null,
                "okogu": 33050,
                "location": "247095, Гомельская обл., г.п. Лоев, ул. Шевелева, 57"
            },
            "requestDate": null,
            "sumLot": {
                "uuid": "376c5763-72be-4134-901f-8fffdd50ebbb",
                "sumLot": 2400.0,
                "appeal": null,
                "appealData": null,
                "okpbs": null,
                "states": null
            },
            "stateName": "Договор подписан",
            "purchaseGiasId": "376c5763-72be-4134-901f-8fffdd50ebbb"
        },
        {
            "dtCreate": 1701085517172,
            "dtUpdate": 1701085517172,
            "chainUuid": null,
            "state": 10,
            "publicPurchaseNumber": "2514945",
            "author": null,
            "title": "Перчатки медицинские смотровая латексные нестерильные непудренные",
            "organizator": {
                "uuid": "81779bb5-264b-4cb0-95af-e9ab98d8624a",
                "name": "Учреждение здравоохранения \"Городская клиническая больница скорой медицинской помощи\"",
                "unp": "100061734",
                "region": null,
                "cityName": null,
                "okogu": 33050,
                "location": "220024, г. Минск, ул. Кижеватова, 58"
            },
            "requestDate": null,
            "sumLot": {
                "uuid": "28b7b251-9961-4ddc-877d-b627a7814a5a",
                "sumLot": 27550.0,
                "appeal": null,
                "appealData": null,
                "okpbs": null,
                "states": null
            },
            "stateName": "Договор подписан",
            "purchaseGiasId": "28b7b251-9961-4ddc-877d-b627a7814a5a"
        },
        {
            "dtCreate": 1701085424792,
            "dtUpdate": 1701085424792,
            "chainUuid": null,
            "state": 3,
            "publicPurchaseNumber": "2514930",
            "author": null,
            "title": "Реагенты и расходные материалы для клинико-диагностической лаборатории",
            "organizator": {
                "uuid": "95437bce-d157-464e-98c8-e270d854d012",
                "name": "Учреждение здравоохранения \"Пинская детская больница\"",
                "unp": "200182578",
                "region": null,
                "cityName": null,
                "okogu": 33050,
                "location": "225710, Брестская обл., г.Пинск, ул.Центральная 11"
            },
            "requestDate": 1701723599000,
            "sumLot": {
                "uuid": "ad514101-8d81-4188-b4f5-30fe3abe8594",
                "sumLot": 3400.0,
                "appeal": null,
                "appealData": null,
                "okpbs": null,
                "states": null
            },
            "stateName": "Подача предложений",
            "purchaseGiasId": "ad514101-8d81-4188-b4f5-30fe3abe8594"
        },
        {
            "dtCreate": 1701085395612,
            "dtUpdate": 1701085395612,
            "chainUuid": null,
            "state": 10,
            "publicPurchaseNumber": "2514921",
            "author": null,
            "title": "Закупка стетофонендоскопа",
            "organizator": {
                "uuid": "a3f51aeb-94d7-4d72-8307-0c9c8b239b52",
                "name": "Учреждение здравоохранения \"Октябрьская центральная районная больница\"",
                "unp": "400007623",
                "region": null,
                "cityName": null,
                "okogu": 33050,
                "location": "247319, Гомельская обл., г.п. Октябрьский, ул. Калинина, 24"
            },
            "requestDate": null,
            "sumLot": {
                "uuid": "78fc2927-81d6-435f-b509-f54e751a5dd1",
                "sumLot": 429.91,
                "appeal": null,
                "appealData": null,
                "okpbs": null,
                "states": null
            },
            "stateName": "Договор подписан",
            "purchaseGiasId": "78fc2927-81d6-435f-b509-f54e751a5dd1"
        },
        {
            "dtCreate": 1701085185947,
            "dtUpdate": 1701085185947,
            "chainUuid": null,
            "state": 10,
            "publicPurchaseNumber": "2514892",
            "author": null,
            "title": "№1136-ЗИОИ-2023 БарМТ №798/23-П Искусственные клапаны сердца, протезы биологические. Лоты 1, 2",
            "organizator": {
                "uuid": "3773cdf3-6ae9-4b15-a45e-1af9c9bcc031",
                "name": "Республиканское дочернее торговое унитарное предприятие \"Медтехника\" г. Барановичи",
                "unp": "200166567",
                "region": null,
                "cityName": null,
                "okogu": 33050,
                "location": "225406, Брестская обл., г.Барановичи, ул.Брестская, 238/б"
            },
            "requestDate": null,
            "sumLot": {
                "uuid": "c6308ea8-59fe-48a3-b394-fb6a3ef1dfac",
                "sumLot": 70000.0,
                "appeal": null,
                "appealData": null,
                "okpbs": null,
                "states": null
            },
            "stateName": "Договор подписан",
            "purchaseGiasId": "c6308ea8-59fe-48a3-b394-fb6a3ef1dfac"
        },
        {
            "dtCreate": 1701084915254,
            "dtUpdate": 1701084915254,
            "chainUuid": null,
            "state": 10,
            "publicPurchaseNumber": "2514852",
            "author": null,
            "title": "Рециркулятор",
            "organizator": {
                "uuid": "f872dcee-afde-4301-bfc2-a975ff779a31",
                "name": "Учреждение здравоохранения \"Пинский диспансер спортивной медицины\"",
                "unp": "290157756",
                "region": null,
                "cityName": null,
                "okogu": 33180,
                "location": "225710, Брестская обл., Пинск, ул. Ленина, 45"
            },
            "requestDate": null,
            "sumLot": {
                "uuid": "96335782-c274-4250-a727-68f450ffeee3",
                "sumLot": 820.0,
                "appeal": null,
                "appealData": null,
                "okpbs": null,
                "states": null
            },
            "stateName": "Договор подписан",
            "purchaseGiasId": "96335782-c274-4250-a727-68f450ffeee3"
        },
        {
            "dtCreate": 1701084827253,
            "dtUpdate": 1701084827253,
            "chainUuid": null,
            "state": 3,
            "publicPurchaseNumber": "2514846",
            "author": null,
            "title": "Электрокардиограф (12-ти канальный)",
            "organizator": {
                "uuid": "68761987-dc8a-4d9b-bc08-ab478e0b25ee",
                "name": "Государственное учреждение здравоохранения \"Минский областной клинический госпиталь инвалидов Великой Отечественной войны имени П.М.Машерова\"",
                "unp": "600211130",
                "region": null,
                "cityName": null,
                "okogu": 33050,
                "location": "223040, Минская обл., аг.Лесной,"
            },
            "requestDate": 1701723599999,
            "sumLot": {
                "uuid": "32ee1e51-274a-4508-96fe-06c7f14185a7",
                "sumLot": 6000.0,
                "appeal": null,
                "appealData": null,
                "okpbs": null,
                "states": null
            },
            "stateName": "Подача предложений",
            "purchaseGiasId": "32ee1e51-274a-4508-96fe-06c7f14185a7"
        },
        {
            "dtCreate": 1701084825153,
            "dtUpdate": 1701084825153,
            "chainUuid": null,
            "state": 3,
            "publicPurchaseNumber": "2514845",
            "author": null,
            "title": "Рентгенпленка и проявитель",
            "organizator": {
                "uuid": "181c0ab5-3510-4ed2-bce2-8ba03e6510dd",
                "name": "Учреждение здравоохранения \"28-я городская поликлиника\"",
                "unp": "190500255",
                "region": null,
                "cityName": null,
                "okogu": 33050,
                "location": "220125, г. Минск, ул. Гинтовта, 28"
            },
            "requestDate": 1701291599999,
            "sumLot": {
                "uuid": "436d05b0-9c39-4d10-8046-3be77c11c49b",
                "sumLot": 4260.0,
                "appeal": null,
                "appealData": null,
                "okpbs": null,
                "states": null
            },
            "stateName": "Подача предложений",
            "purchaseGiasId": "436d05b0-9c39-4d10-8046-3be77c11c49b"
        }
    ],
    "numberOfElements": 10,
    "first": true,
    "last": false
}